FIFO/sim/dump.vcd
$date
   Sat Feb  3 23:01:46 2024
$end

$version
  2023.2
  $dumpfile ("dump.vcd") 
$end

$timescale
  1ps
$end

$scope module tb $end
$var reg 32 ! env $end
$scope module fif $end
$var reg 1 " clock $end
$var reg 1 # rd $end
$var reg 1 $ wr $end
$var reg 1 % full $end
$var reg 1 & empty $end
$var reg 8 ' data_in [7:0] $end
$var reg 8 ( data_out [7:0] $end
$var reg 1 ) rst $end
$upscope $end
$scope module dut $end
$var wire 1 * clock $end
$var wire 1 + rd $end
$var wire 1 , wr $end
$var wire 1 - full $end
$var wire 1 . empty $end
$var wire 8 / data_in [7:0] $end
$var reg 8 0 data_out [7:0] $end
$var wire 1 1 rst $end
$var reg 5 2 wr_ptr [4:0] $end
$var reg 5 3 rd_ptr [4:0] $end
$scope begin Block22_5 $end
$var reg 32 4 i [31:0] $end
$upscope $end
$upscope $end
$upscope $end
$enddefinitions $end

#0
$dumpvars
b10111001100000110zzzzzzz0011xz00 !
0"
0#
0$
x%
x&
b0 '
bx (
1)
0*
0+
0,
x-
x.
b0 /
bx 0
11
bx 2
bx 3
b0 4
$end

#10000
1"
0%
1&
b0 (
1*
0-
1.
b0 0
b0 2
b0 3
b100000 4

#20000
0"
0*

#30000
1"
1*
b100000 4

#40000
0"
0*

#50000
1"
1*
b100000 4

#60000
0"
0*

#70000
1"
1*
b100000 4

#80000
0"
0*

#90000
1"
1#
b11 '
0)
1*
1+
b11 /
01
b100000 4

#100000
0"
0*

#110000
1"
1*

#120000
0"
0*

#130000
1"
0#
1$
1*
0+
1,

#140000
0"
0*

#150000
1"
0&
1*
0.
b1 2

#160000
0"
0*

#170000
1"
b100 '
1*
b100 /
b10 2

#180000
0"
0*

#190000
1"
1*
b11 2

#200000
0"
0*

#210000
1"
1*
b100 2

#220000
0"
0*

#230000
1"
1*
b101 2

#240000
0"
0*

#250000
1"
b10 '
1*
b10 /
b110 2

#260000
0"
0*

#270000
1"
1*
b111 2

#280000
0"
0*

#290000
1"
b100 '
1*
b100 /
b1000 2

#300000
0"
0*

#310000
1"
1*
b1001 2

#320000
0"
0*

#330000
1"
1#
0$
1*
1+
0,
b1010 2

#340000
0"
0*

#350000
1"
b11 (
1*
b11 0
b1 3

#360000
0"
0*

#370000
1"
b11 '
1*
b11 /
b10 3

#380000
0"
0*

#390000
1"
b100 (
1*
b100 0
b11 3

#400000
0"
0*

#410000
1"
b10 '
1*
b10 /
b100 3

#420000
0"
0*

#430000
1"
1*
b101 3

#440000
0"
0*

#450000
1"
b100 '
1*
b100 /
b110 3

#460000
0"
0*

#470000
1"
b10 (
1*
b10 0
b111 3

#480000
0"
0*

#490000
1"
b11 '
1*
b11 /
b1000 3

#500000
0"
0*

#510000
1"
b100 (
1*
b100 0
b1001 3

#520000
0"
0*

#530000
1"
0#
1$
1&
b10 '
1*
0+
1,
1.
b10 /
b1010 3

#540000
0"
0*

#550000
1"
0&
1*
0.
b1011 2

#560000
0"
0*

#570000
1"
1#
0$
b100 '
1*
1+
0,
b100 /
b1100 2

#580000
0"
0*

#590000
1"
b10 (
1*
b10 0
b1011 3

#600000
0"
0*

#610000
1"
1&
b11 '
1*
1.
b11 /
b1100 3

#620000
0"
0*

#630000
1"
1*

#640000
0"
0*

#650000
1"
b10 '
1*
b10 /

#660000
0"
0*

#670000
1"
1*

#680000
0"
0*

#690000
1"
0#
1$
b11 '
1*
0+
1,
b11 /

#700000
0"
0*

#710000
1"
0&
1*
0.
b1101 2

#720000
0"
0*

#730000
1"
1*
b1110 2

#740000
0"
0*

#750000
1"
1*
b1111 2

#760000
0"
0*

#770000
1"
1#
0$
b100 '
1*
1+
0,
b100 /
b10000 2

#780000
0"
0*

#790000
1"
b11 (
1*
b11 0
b1101 3

#800000
0"
0*

#810000
1"
0#
1$
b10 '
1*
0+
1,
b10 /
b1110 3

#820000
0"
0*

#830000
1"
1*
b10001 2

#840000
0"
0*

#850000
1"
b11 '
1*
b11 /
b10010 2

#860000
0"
0*

#870000
1"
1*
b10011 2

#880000
0"
0*

#890000
1"
1#
0$
1*
1+
0,
b10100 2

#900000
0"
0*

#910000
1"
1*
b1111 3

#920000
0"
0*

#930000
1"
b10 '
1*
b10 /
b10000 3

#940000
0"
0*

#950000
1"
b10 (
1*
b10 0
b10001 3

#960000
0"
0*

#970000
1"
0#
1$
b11 '
1*
0+
1,
b11 /
b10010 3

#980000
0"
0*

#990000
1"
1*
b10101 2

#1000000
0"
0*

#1010000
1"
b10 '
1*
b10 /
b10110 2

#1020000
0"
0*

#1030000
1"
1*
b10111 2

#1040000
0"
0*

#1050000
1"
1#
0$
1*
1+
0,
b11000 2

#1060000
0"
0*

#1070000
1"
b11 (
1*
b11 0
b10011 3

#1080000
0"
0*

#1090000
1"
0#
1$
b100 '
1*
0+
1,
b100 /
b10100 3

#1100000
0"
0*

#1110000
1"
1*
b11001 2

#1120000
0"
0*

#1130000
1"
b10 '
1*
b10 /
b11010 2

#1140000
0"
0*

#1150000
1"
1*
b11011 2

#1160000
0"
0*

#1170000
1"
1#
0$
b100 '
1*
1+
0,
b100 /
b11100 2

#1180000
0"
0*

#1190000
1"
1*
b10101 3

#1200000
0"
0*

#1210000
1"
1*
b10110 3

#1220000
0"
0*

#1230000
1"
b10 (
1*
b10 0
b10111 3

#1240000
0"
0*

#1250000
1"
b11 '
1*
b11 /
b11000 3

#1260000
0"
0*

#1270000
1"
b100 (
1*
b100 0
b11001 3

#1280000
0"
0*

#1290000
1"
0#
1$
b10 '
1*
0+
1,
b10 /
b11010 3

#1300000
0"
0*

#1310000
1"
1*
b11101 2

#1320000
0"
0*

#1330000
1"
1*
b11110 2

#1340000
0"
0*

#1350000
1"
1*
b11111 2

#1360000
0"
0*

#1370000
1"
b100 '
1*
b100 /
b0 2

#1380000
0"
0*

#1390000
1"
1*
b1 2

#1400000
0"
0*

#1410000
1"
1#
0$
1*
1+
0,
b10 2

#1420000
0"
0*

#1430000
1"
b10 (
1*
b10 0
b11011 3

#1440000
0"
0*

#1450000
1"
0#
1$
1*
0+
1,
b11100 3

#1460000
0"
0*

#1470000
1"
1*
b11 2

#1480000
0"
0*

#1490000
1"
1#
0$
b10 '
1*
1+
0,
b10 /
b100 2

#1500000
0"
0*

#1510000
1"
1*
b11101 3

#1520000
0"
0*

#1530000
1"
0#
1$
b11 '
1*
0+
1,
b11 /
b11110 3

#1540000
0"
0*

#1550000
1"
1*
b101 2

#1560000
0"
0*

#1570000
1"
1#
0$
1*
1+
0,
b110 2

#1580000
0"
0*

#1590000
1"
1*
b11111 3

#1600000
0"
0*

#1610000
1"
1*
b0 3

#1620000
0"
0*

#1630000
1"
b100 (
1*
b100 0
b1 3

#1640000
0"
0*

#1650000
1"
1*
b10 3

#1660000
0"
0*

#1670000
1"
1*
b11 3

#1680000
0"
0*

#1690000
1"
1*
b100 3

#1700000
0"
0*

#1710000
1"
b11 (
1*
b11 0
b101 3

#1720000
0"
0*

#1730000
1"
0#
1$
1&
b100 '
1*
0+
1,
1.
b100 /
b110 3

#1740000
0"
0*

#1750000
1"
0&
1*
0.
b111 2

#1760000
0"
0*

#1770000
1"
b11 '
1*
b11 /
b1000 2

#1780000
0"
0*

#1790000
1"
1*
b1001 2

#1800000
0"
0*

#1810000
1"
1#
0$
b10 '
1*
1+
0,
b10 /
b1010 2

#1820000
0"
0*

#1830000
1"
b100 (
1*
b100 0
b111 3

#1840000
0"
0*

#1850000
1"
0#
1$
b11 '
1*
0+
1,
b11 /
b1000 3

#1860000
0"
0*

#1870000
1"
1*
b1011 2

#1880000
0"
0*

#1890000
1"
1#
0$
b100 '
1*
1+
0,
b100 /
b1100 2

#1900000
0"
0*

#1910000
1"
b11 (
1*
b11 0
b1001 3

#1920000
0"
0*

#1930000
1"
0#
1$
b11 '
1*
0+
1,
b11 /
b1010 3

#1940000
0"
0*

#1950000
1"
1*
b1101 2

#1960000
0"
0*

#1970000
1"
1#
0$
1*
1+
0,
b1110 2

#1980000
0"
0*

#1990000
1"
1*
b1011 3

#2000000
0"
0*

#2010000
1"
0#
1$
b100 '
1*
0+
1,
b100 /
b1100 3

#2020000
0"
0*

#2030000
1"
1*
b1111 2

#2040000
0"
0*

#2050000
1"
b10 '
1*
b10 /
b10000 2

#2060000
0"
0*

#2070000
1"
1*
b10001 2

#2080000
0"
0*

#2090000
1"
1#
0$
b100 '
1*
1+
0,
b100 /
b10010 2

#2100000
0"
0*

#2110000
1"
1*
b1101 3

#2120000
0"
0*

#2130000
1"
0#
1$
b11 '
1*
0+
1,
b11 /
b1110 3

#2140000
0"
0*

#2150000
1"
1*
b10011 2

#2160000
0"
0*

#2170000
1"
1#
0$
1*
1+
0,
b10100 2

#2180000
0"
0*

#2190000
1"
b100 (
1*
b100 0
b1111 3

#2200000
0"
0*

#2210000
1"
0#
1$
1*
0+
1,
b10000 3

#2220000
0"
0*

#2230000
1"
1*
b10101 2

#2240000
0"
0*

#2250000
1"
b100 '
1*
b100 /
b10110 2

#2260000
0"
0*

#2270000
1"
1*
b10111 2

#2280000
0"
0*

#2290000
1"
b10 '
1*
b10 /
b11000 2

#2300000
0"
0*

#2310000
1"
1*
b11001 2

#2320000
0"
0*

#2330000
1"
1*
b11010 2

#2340000
0"
0*

#2350000
1"
1*
b11011 2

#2360000
0"
0*

#2370000
1"
1#
0$
b100 '
1*
1+
0,
b100 /
b11100 2

#2380000
0"
0*

#2390000
1"
b10 (
1*
b10 0
b10001 3

#2400000
0"
0*

#2410000
1"
b11 '
1*
b11 /
b10010 3

#2420000
0"
0*

#2430000
1"
b11 (
1*
b11 0
b10011 3

#2440000
0"
0*

#2450000
1"
b100 '
1*
b100 /
b10100 3

#2460000
0"
0*

#2470000
1"
1*
b10101 3

#2480000
0"
0*

#2490000
1"
b10 '
1*
b10 /
b10110 3

#2500000
0"
0*

#2510000
1"
b100 (
1*
b100 0
b10111 3

#2520000
0"
0*

#2530000
1"
0#
1$
b11 '
1*
0+
1,
b11 /
b11000 3

#2540000
0"
0*

#2550000
1"
1*
b11101 2

#2560000
0"
0*

#2570000
1"
1#
0$
b10 '
1*
1+
0,
b10 /
b11110 2

#2580000
0"
0*

#2590000
1"
b10 (
1*
b10 0
b11001 3

#2600000
0"
0*

#2610000
1"
0#
1$
b100 '
1*
0+
1,
b100 /
b11010 3

#2620000
0"
0*

#2630000
1"
1*
b11111 2

#2640000
0"
0*

#2650000
1"
1*
b0 2

#2660000
0"
0*

#2670000
1"
1*
b1 2

#2680000
0"
0*

#2690000
1"
b11 '
1*
b11 /
b10 2

#2700000
0"
0*

#2710000
1"
1*
b11 2

#2720000
0"
0*

#2730000
1"
1#
0$
1*
1+
0,
b100 2

#2740000
0"
0*

#2750000
1"
1*
b11011 3

#2760000
0"
0*

#2770000
1"
1*
b11100 3

#2780000
0"
0*

#2790000
1"
b11 (
1*
b11 0
b11101 3

#2800000
0"
0*

#2810000
1"
0#
1$
b10 '
1*
0+
1,
b10 /
b11110 3

#2820000
0"
0*

#2830000
1"
1*
b101 2

#2840000
0"
0*

#2850000
1"
b100 '
1*
b100 /
b110 2

#2860000
0"
0*

#2870000
1"
1*
b111 2

#2880000
0"
0*

#2890000
1"
1#
0$
b10 '
1*
1+
0,
b10 /
b1000 2

#2900000
0"
0*

#2910000
1"
b100 (
1*
b100 0
b11111 3

#2920000
0"
0*

#2930000
1"
b11 '
1*
b11 /
b0 3

#2940000
0"
0*

#2950000
1"
1*
b1 3

#2960000
0"
0*

#2970000
1"
1*
b10 3

#2980000
0"
0*

#2990000
1"
b11 (
1*
b11 0
b11 3

#3000000
0"
0*

#3010000
1"
b10 '
1*
b10 /
b100 3

#3020000
0"
0*

#3030000
1"
b10 (
1*
b10 0
b101 3

#3040000
0"
0*

#3050000
1"
b100 '
1*
b100 /
b110 3

#3060000
0"
0*

#3070000
1"
b100 (
1*
b100 0
b111 3

#3080000
0"
0*

#3090000
1"
1&
b11 '
1*
1.
b11 /
b1000 3

#3100000
0"
0*

#3110000
1"
1*

#3120000
0"
0*

#3130000
1"
1*

#3140000
0"
0*

#3150000
1"
1*

#3160000
0"
0*

#3170000
1"
b10 '
1*
b10 /

#3180000
0"
0*

#3190000
1"
1*

#3200000
0"
0*

#3210000
1"
1*

#3220000
0"
0*

#3230000
1"
1*

#3240000
0"
0*

#3250000
1"
1*

#3260000
0"
0*

#3270000
1"
1*

#3280000
0"
0*

#3290000
1"
0#
1$
b11 '
1*
0+
1,
b11 /

#3300000
0"
0*

#3310000
1"
0&
1*
0.
b1001 2

#3320000
0"
0*

#3330000
1"
b10 '
1*
b10 /
b1010 2

#3340000
0"
0*

#3350000
1"
1*
b1011 2

#3360000
0"
0*

#3370000
1"
1#
0$
b100 '
1*
1+
0,
b100 /
b1100 2

#3380000
0"
0*

#3390000
1"
b11 (
1*
b11 0
b1001 3

#3400000
0"
0*

#3410000
1"
0#
1$
b11 '
1*
0+
1,
b11 /
b1010 3

#3420000
0"
0*

#3430000
1"
1*
b1101 2

#3440000
0"
0*

#3450000
1"
1#
0$
1*
1+
0,
b1110 2

#3460000
0"
0*

#3470000
1"
b10 (
1*
b10 0
b1011 3

#3480000
0"
0*

#3490000
1"
0#
1$
1*
0+
1,
b1100 3

#3500000
0"
0*

#3510000
1"
1*
b1111 2

#3520000
0"
0*

#3530000
1"
1#
0$
1*
1+
0,
b10000 2

#3540000
0"
0*

#3550000
1"
b11 (
1*
b11 0
b1101 3

#3560000
0"
0*

#3570000
1"
0#
1$
b10 '
1*
0+
1,
b10 /
b1110 3

#3580000
0"
0*

#3590000
1"
1*
b10001 2

#3600000
0"
0*

#3610000
1"
1#
0$
b100 '
1*
1+
0,
b100 /
b10010 2

#3620000
0"
0*

#3630000
1"
1*
b1111 3

#3640000
0"
0*

#3650000
1"
1*
b10000 3

#3660000
0"
0*

#3670000
1"
b10 (
1*
b10 0
b10001 3

#3680000
0"
0*

#3690000
1"
0#
1$
1&
b10 '
1*
0+
1,
1.
b10 /
b10010 3

#3700000
0"
0*

#3710000
1"
0&
1*
0.
b10011 2

#3720000
0"
0*

#3730000
1"
1*
b10100 2

#3740000
0"
0*

#3750000
1"
1*
b10101 2

#3760000
0"
0*

#3770000
1"
b11 '
1*
b11 /
b10110 2

#3780000
0"
0*

#3790000
1"
1*
b10111 2

#3800000
0"
0*

#3810000
1"
1#
0$
b100 '
1*
1+
0,
b100 /
b11000 2

#3820000
0"
0*

#3830000
1"
1*
b10011 3

#3840000
0"
0*

#3850000
1"
b11 '
1*
b11 /
b10100 3

#3860000
0"
0*

#3870000
1"
1*
b10101 3

#3880000
0"
0*

#3890000
1"
0#
1$
b10 '
1*
0+
1,
b10 /
b10110 3

#3900000
0"
0*

#3910000
1"
1*
b11001 2

#3920000
0"
0*

#3930000
1"
b100 '
1*
b100 /
b11010 2

#3940000
0"
0*

#3950000
1"
1*
b11011 2

#3960000
0"
0*

#3970000
1"
1#
0$
b11 '
1*
1+
0,
b11 /
b11100 2

#3980000
0"
0*

#3990000
1"
b11 (
1*
b11 0
b10111 3

#4000000
0"
0*

#4010000
1"
0#
1$
b10 '
1*
0+
1,
b10 /
b11000 3

#4020000
0"
0*

#4030000
1"
1*
b11101 2

#4040000
0"
0*

#4050000
1"
b100 '
1*
b100 /
b11110 2

#4060000
0"
0*

#4070000
1"
1*
b11111 2

#4080000
0"
0*

#4090000
1"
1*
b0 2
