FIFO/sim/xsim.log
#-----------------------------------------------------------
# xsim v2023.2 (64-bit)
# SW Build 4029153 on Fri Oct 13 20:13:54 MDT 2023
# IP Build 4028589 on Sat Oct 14 00:45:43 MDT 2023
# SharedData Build 4025554 on Tue Oct 10 17:18:54 MDT 2023
# Start of session at: Sat Feb  3 23:01:42 2024
# Process ID: 12728
# Current directory: /home/rubayet/Desktop/FIFO/sim
# Command line: xsim -mode tcl -source {xsim.dir/top/xsim_script.tcl}
# Log file: /home/rubayet/Desktop/FIFO/sim/xsim.log
# Journal file: /home/rubayet/Desktop/FIFO/sim/xsim.jou
# Running On: asus, OS: Linux, CPU Frequency: 3100.070 MHz, CPU Physical cores: 2, Host memory: 8061 MB
#-----------------------------------------------------------
source xsim.dir/top/xsim_script.tcl
# xsim {top} -autoloadwcfg -runall
Time resolution is 1 ps
run -all
[DRV] : DUT Reset Done
[GEN] : WR : 0	 RD:1	 DATAWR : 3	 DATARD : 0	 FULL : 0	 EMPTY : 0 @ 90000
[DRV] : WR : 0	 RD:1	 DATAWR : 3	 DATARD : 0	 FULL : 0	 EMPTY : 0 @ 90000
[MON] : WR : 0	 RD:1	 DATAWR : 3	 DATARD : 0	 FULL : 0	 EMPTY : 1 @ 130000
[SCO] : WR : 0	 RD:1	 DATAWR : 3	 DATARD : 0	 FULL : 0	 EMPTY : 1 @ 130000
[SCO] : FIFO IS EMPTY
[GEN] : WR : 1	 RD:0	 DATAWR : 3	 DATARD : 0	 FULL : 0	 EMPTY : 0 @ 130000
[DRV] : WR : 1	 RD:0	 DATAWR : 3	 DATARD : 0	 FULL : 0	 EMPTY : 0 @ 130000
[MON] : WR : 1	 RD:0	 DATAWR : 3	 DATARD : 0	 FULL : 0	 EMPTY : 0 @ 170000
[SCO] : WR : 1	 RD:0	 DATAWR : 3	 DATARD : 0	 FULL : 0	 EMPTY : 0 @ 170000
[SCO] : DATA STORED IN QUEUE :3
[GEN] : WR : 1	 RD:0	 DATAWR : 4	 DATARD : 0	 FULL : 0	 EMPTY : 0 @ 170000
[DRV] : WR : 1	 RD:0	 DATAWR : 4	 DATARD : 0	 FULL : 0	 EMPTY : 0 @ 170000
[MON] : WR : 1	 RD:0	 DATAWR : 4	 DATARD : 0	 FULL : 0	 EMPTY : 0 @ 210000
[SCO] : WR : 1	 RD:0	 DATAWR : 4	 DATARD : 0	 FULL : 0	 EMPTY : 0 @ 210000
[SCO] : DATA STORED IN QUEUE :4
[GEN] : WR : 1	 RD:0	 DATAWR : 4	 DATARD : 0	 FULL : 0	 EMPTY : 0 @ 210000
[DRV] : WR : 1	 RD:0	 DATAWR : 4	 DATARD : 0	 FULL : 0	 EMPTY : 0 @ 210000
[MON] : WR : 1	 RD:0	 DATAWR : 4	 DATARD : 0	 FULL : 0	 EMPTY : 0 @ 250000
[SCO] : WR : 1	 RD:0	 DATAWR : 4	 DATARD : 0	 FULL : 0	 EMPTY : 0 @ 250000
[SCO] : DATA STORED IN QUEUE :4
[GEN] : WR : 1	 RD:0	 DATAWR : 2	 DATARD : 0	 FULL : 0	 EMPTY : 0 @ 250000
[DRV] : WR : 1	 RD:0	 DATAWR : 2	 DATARD : 0	 FULL : 0	 EMPTY : 0 @ 250000
[MON] : WR : 1	 RD:0	 DATAWR : 2	 DATARD : 0	 FULL : 0	 EMPTY : 0 @ 290000
[SCO] : WR : 1	 RD:0	 DATAWR : 2	 DATARD : 0	 FULL : 0	 EMPTY : 0 @ 290000
[SCO] : DATA STORED IN QUEUE :2
[GEN] : WR : 1	 RD:0	 DATAWR : 4	 DATARD : 0	 FULL : 0	 EMPTY : 0 @ 290000
[DRV] : WR : 1	 RD:0	 DATAWR : 4	 DATARD : 0	 FULL : 0	 EMPTY : 0 @ 290000
[MON] : WR : 1	 RD:0	 DATAWR : 4	 DATARD : 0	 FULL : 0	 EMPTY : 0 @ 330000
[SCO] : WR : 1	 RD:0	 DATAWR : 4	 DATARD : 0	 FULL : 0	 EMPTY : 0 @ 330000
[SCO] : DATA STORED IN QUEUE :4
[GEN] : WR : 0	 RD:1	 DATAWR : 4	 DATARD : 0	 FULL : 0	 EMPTY : 0 @ 330000
[DRV] : WR : 0	 RD:1	 DATAWR : 4	 DATARD : 0	 FULL : 0	 EMPTY : 0 @ 330000
[MON] : WR : 0	 RD:1	 DATAWR : 4	 DATARD : 3	 FULL : 0	 EMPTY : 0 @ 370000
[SCO] : WR : 0	 RD:1	 DATAWR : 4	 DATARD : 3	 FULL : 0	 EMPTY : 0 @ 370000
[SCO] : DATA MATCH
[GEN] : WR : 0	 RD:1	 DATAWR : 3	 DATARD : 0	 FULL : 0	 EMPTY : 0 @ 370000
[DRV] : WR : 0	 RD:1	 DATAWR : 3	 DATARD : 0	 FULL : 0	 EMPTY : 0 @ 370000
[MON] : WR : 0	 RD:1	 DATAWR : 3	 DATARD : 4	 FULL : 0	 EMPTY : 0 @ 410000
[SCO] : WR : 0	 RD:1	 DATAWR : 3	 DATARD : 4	 FULL : 0	 EMPTY : 0 @ 410000
[SCO] : DATA MATCH
[GEN] : WR : 0	 RD:1	 DATAWR : 2	 DATARD : 0	 FULL : 0	 EMPTY : 0 @ 410000
[DRV] : WR : 0	 RD:1	 DATAWR : 2	 DATARD : 0	 FULL : 0	 EMPTY : 0 @ 410000
[MON] : WR : 0	 RD:1	 DATAWR : 2	 DATARD : 4	 FULL : 0	 EMPTY : 0 @ 450000
[SCO] : WR : 0	 RD:1	 DATAWR : 2	 DATARD : 4	 FULL : 0	 EMPTY : 0 @ 450000
[SCO] : DATA MATCH
[GEN] : WR : 0	 RD:1	 DATAWR : 4	 DATARD : 0	 FULL : 0	 EMPTY : 0 @ 450000
[DRV] : WR : 0	 RD:1	 DATAWR : 4	 DATARD : 0	 FULL : 0	 EMPTY : 0 @ 450000
[MON] : WR : 0	 RD:1	 DATAWR : 4	 DATARD : 2	 FULL : 0	 EMPTY : 0 @ 490000
[SCO] : WR : 0	 RD:1	 DATAWR : 4	 DATARD : 2	 FULL : 0	 EMPTY : 0 @ 490000
[SCO] : DATA MATCH
[GEN] : WR : 0	 RD:1	 DATAWR : 3	 DATARD : 0	 FULL : 0	 EMPTY : 0 @ 490000
[DRV] : WR : 0	 RD:1	 DATAWR : 3	 DATARD : 0	 FULL : 0	 EMPTY : 0 @ 490000
[MON] : WR : 0	 RD:1	 DATAWR : 3	 DATARD : 4	 FULL : 0	 EMPTY : 0 @ 530000
[SCO] : WR : 0	 RD:1	 DATAWR : 3	 DATARD : 4	 FULL : 0	 EMPTY : 0 @ 530000
[SCO] : DATA MATCH
[GEN] : WR : 1	 RD:0	 DATAWR : 2	 DATARD : 0	 FULL : 0	 EMPTY : 0 @ 530000
[DRV] : WR : 1	 RD:0	 DATAWR : 2	 DATARD : 0	 FULL : 0	 EMPTY : 0 @ 530000
[MON] : WR : 1	 RD:0	 DATAWR : 2	 DATARD : 4	 FULL : 0	 EMPTY : 0 @ 570000
[SCO] : WR : 1	 RD:0	 DATAWR : 2	 DATARD : 4	 FULL : 0	 EMPTY : 0 @ 570000
[SCO] : DATA STORED IN QUEUE :2
[GEN] : WR : 0	 RD:1	 DATAWR : 4	 DATARD : 0	 FULL : 0	 EMPTY : 0 @ 570000
[DRV] : WR : 0	 RD:1	 DATAWR : 4	 DATARD : 0	 FULL : 0	 EMPTY : 0 @ 570000
[MON] : WR : 0	 RD:1	 DATAWR : 4	 DATARD : 2	 FULL : 0	 EMPTY : 0 @ 610000
[SCO] : WR : 0	 RD:1	 DATAWR : 4	 DATARD : 2	 FULL : 0	 EMPTY : 0 @ 610000
[SCO] : DATA MATCH
[GEN] : WR : 0	 RD:1	 DATAWR : 3	 DATARD : 0	 FULL : 0	 EMPTY : 0 @ 610000
[DRV] : WR : 0	 RD:1	 DATAWR : 3	 DATARD : 0	 FULL : 0	 EMPTY : 0 @ 610000
[MON] : WR : 0	 RD:1	 DATAWR : 3	 DATARD : 2	 FULL : 0	 EMPTY : 1 @ 650000
[SCO] : WR : 0	 RD:1	 DATAWR : 3	 DATARD : 2	 FULL : 0	 EMPTY : 1 @ 650000
[SCO] : FIFO IS EMPTY
[GEN] : WR : 0	 RD:1	 DATAWR : 2	 DATARD : 0	 FULL : 0	 EMPTY : 0 @ 650000
[DRV] : WR : 0	 RD:1	 DATAWR : 2	 DATARD : 0	 FULL : 0	 EMPTY : 0 @ 650000
[MON] : WR : 0	 RD:1	 DATAWR : 2	 DATARD : 2	 FULL : 0	 EMPTY : 1 @ 690000
[SCO] : WR : 0	 RD:1	 DATAWR : 2	 DATARD : 2	 FULL : 0	 EMPTY : 1 @ 690000
[SCO] : FIFO IS EMPTY
[GEN] : WR : 1	 RD:0	 DATAWR : 3	 DATARD : 0	 FULL : 0	 EMPTY : 0 @ 690000
[DRV] : WR : 1	 RD:0	 DATAWR : 3	 DATARD : 0	 FULL : 0	 EMPTY : 0 @ 690000
[MON] : WR : 1	 RD:0	 DATAWR : 3	 DATARD : 2	 FULL : 0	 EMPTY : 0 @ 730000
[SCO] : WR : 1	 RD:0	 DATAWR : 3	 DATARD : 2	 FULL : 0	 EMPTY : 0 @ 730000
[SCO] : DATA STORED IN QUEUE :3
[GEN] : WR : 1	 RD:0	 DATAWR : 3	 DATARD : 0	 FULL : 0	 EMPTY : 0 @ 730000
[DRV] : WR : 1	 RD:0	 DATAWR : 3	 DATARD : 0	 FULL : 0	 EMPTY : 0 @ 730000
[MON] : WR : 1	 RD:0	 DATAWR : 3	 DATARD : 2	 FULL : 0	 EMPTY : 0 @ 770000
[SCO] : WR : 1	 RD:0	 DATAWR : 3	 DATARD : 2	 FULL : 0	 EMPTY : 0 @ 770000
[SCO] : DATA STORED IN QUEUE :3
[GEN] : WR : 0	 RD:1	 DATAWR : 4	 DATARD : 0	 FULL : 0	 EMPTY : 0 @ 770000
[DRV] : WR : 0	 RD:1	 DATAWR : 4	 DATARD : 0	 FULL : 0	 EMPTY : 0 @ 770000
[MON] : WR : 0	 RD:1	 DATAWR : 4	 DATARD : 3	 FULL : 0	 EMPTY : 0 @ 810000
[SCO] : WR : 0	 RD:1	 DATAWR : 4	 DATARD : 3	 FULL : 0	 EMPTY : 0 @ 810000
[SCO] : DATA MATCH
[GEN] : WR : 1	 RD:0	 DATAWR : 2	 DATARD : 0	 FULL : 0	 EMPTY : 0 @ 810000
[DRV] : WR : 1	 RD:0	 DATAWR : 2	 DATARD : 0	 FULL : 0	 EMPTY : 0 @ 810000
[MON] : WR : 1	 RD:0	 DATAWR : 2	 DATARD : 3	 FULL : 0	 EMPTY : 0 @ 850000
[SCO] : WR : 1	 RD:0	 DATAWR : 2	 DATARD : 3	 FULL : 0	 EMPTY : 0 @ 850000
[SCO] : DATA STORED IN QUEUE :2
[GEN] : WR : 1	 RD:0	 DATAWR : 3	 DATARD : 0	 FULL : 0	 EMPTY : 0 @ 850000
[DRV] : WR : 1	 RD:0	 DATAWR : 3	 DATARD : 0	 FULL : 0	 EMPTY : 0 @ 850000
[MON] : WR : 1	 RD:0	 DATAWR : 3	 DATARD : 3	 FULL : 0	 EMPTY : 0 @ 890000
[SCO] : WR : 1	 RD:0	 DATAWR : 3	 DATARD : 3	 FULL : 0	 EMPTY : 0 @ 890000
[SCO] : DATA STORED IN QUEUE :3
[GEN] : WR : 0	 RD:1	 DATAWR : 3	 DATARD : 0	 FULL : 0	 EMPTY : 0 @ 890000
[DRV] : WR : 0	 RD:1	 DATAWR : 3	 DATARD : 0	 FULL : 0	 EMPTY : 0 @ 890000
[MON] : WR : 0	 RD:1	 DATAWR : 3	 DATARD : 3	 FULL : 0	 EMPTY : 0 @ 930000
[SCO] : WR : 0	 RD:1	 DATAWR : 3	 DATARD : 3	 FULL : 0	 EMPTY : 0 @ 930000
[SCO] : DATA MATCH
[GEN] : WR : 0	 RD:1	 DATAWR : 2	 DATARD : 0	 FULL : 0	 EMPTY : 0 @ 930000
[DRV] : WR : 0	 RD:1	 DATAWR : 2	 DATARD : 0	 FULL : 0	 EMPTY : 0 @ 930000
[MON] : WR : 0	 RD:1	 DATAWR : 2	 DATARD : 2	 FULL : 0	 EMPTY : 0 @ 970000
[SCO] : WR : 0	 RD:1	 DATAWR : 2	 DATARD : 2	 FULL : 0	 EMPTY : 0 @ 970000
[SCO] : DATA MATCH
[GEN] : WR : 1	 RD:0	 DATAWR : 3	 DATARD : 0	 FULL : 0	 EMPTY : 0 @ 970000
[DRV] : WR : 1	 RD:0	 DATAWR : 3	 DATARD : 0	 FULL : 0	 EMPTY : 0 @ 970000
[MON] : WR : 1	 RD:0	 DATAWR : 3	 DATARD : 2	 FULL : 0	 EMPTY : 0 @ 1010000
[SCO] : WR : 1	 RD:0	 DATAWR : 3	 DATARD : 2	 FULL : 0	 EMPTY : 0 @ 1010000
[SCO] : DATA STORED IN QUEUE :3
[GEN] : WR : 1	 RD:0	 DATAWR : 2	 DATARD : 0	 FULL : 0	 EMPTY : 0 @ 1010000
[DRV] : WR : 1	 RD:0	 DATAWR : 2	 DATARD : 0	 FULL : 0	 EMPTY : 0 @ 1010000
[MON] : WR : 1	 RD:0	 DATAWR : 2	 DATARD : 2	 FULL : 0	 EMPTY : 0 @ 1050000
[SCO] : WR : 1	 RD:0	 DATAWR : 2	 DATARD : 2	 FULL : 0	 EMPTY : 0 @ 1050000
[SCO] : DATA STORED IN QUEUE :2
[GEN] : WR : 0	 RD:1	 DATAWR : 2	 DATARD : 0	 FULL : 0	 EMPTY : 0 @ 1050000
[DRV] : WR : 0	 RD:1	 DATAWR : 2	 DATARD : 0	 FULL : 0	 EMPTY : 0 @ 1050000
[MON] : WR : 0	 RD:1	 DATAWR : 2	 DATARD : 3	 FULL : 0	 EMPTY : 0 @ 1090000
[SCO] : WR : 0	 RD:1	 DATAWR : 2	 DATARD : 3	 FULL : 0	 EMPTY : 0 @ 1090000
[SCO] : DATA MATCH
[GEN] : WR : 1	 RD:0	 DATAWR : 4	 DATARD : 0	 FULL : 0	 EMPTY : 0 @ 1090000
[DRV] : WR : 1	 RD:0	 DATAWR : 4	 DATARD : 0	 FULL : 0	 EMPTY : 0 @ 1090000
[MON] : WR : 1	 RD:0	 DATAWR : 4	 DATARD : 3	 FULL : 0	 EMPTY : 0 @ 1130000
[SCO] : WR : 1	 RD:0	 DATAWR : 4	 DATARD : 3	 FULL : 0	 EMPTY : 0 @ 1130000
[SCO] : DATA STORED IN QUEUE :4
[GEN] : WR : 1	 RD:0	 DATAWR : 2	 DATARD : 0	 FULL : 0	 EMPTY : 0 @ 1130000
[DRV] : WR : 1	 RD:0	 DATAWR : 2	 DATARD : 0	 FULL : 0	 EMPTY : 0 @ 1130000
[MON] : WR : 1	 RD:0	 DATAWR : 2	 DATARD : 3	 FULL : 0	 EMPTY : 0 @ 1170000
[SCO] : WR : 1	 RD:0	 DATAWR : 2	 DATARD : 3	 FULL : 0	 EMPTY : 0 @ 1170000
[SCO] : DATA STORED IN QUEUE :2
[GEN] : WR : 0	 RD:1	 DATAWR : 4	 DATARD : 0	 FULL : 0	 EMPTY : 0 @ 1170000
[DRV] : WR : 0	 RD:1	 DATAWR : 4	 DATARD : 0	 FULL : 0	 EMPTY : 0 @ 1170000
[MON] : WR : 0	 RD:1	 DATAWR : 4	 DATARD : 3	 FULL : 0	 EMPTY : 0 @ 1210000
[SCO] : WR : 0	 RD:1	 DATAWR : 4	 DATARD : 3	 FULL : 0	 EMPTY : 0 @ 1210000
[SCO] : DATA MATCH
[GEN] : WR : 0	 RD:1	 DATAWR : 4	 DATARD : 0	 FULL : 0	 EMPTY : 0 @ 1210000
[DRV] : WR : 0	 RD:1	 DATAWR : 4	 DATARD : 0	 FULL : 0	 EMPTY : 0 @ 1210000
[MON] : WR : 0	 RD:1	 DATAWR : 4	 DATARD : 2	 FULL : 0	 EMPTY : 0 @ 1250000
[SCO] : WR : 0	 RD:1	 DATAWR : 4	 DATARD : 2	 FULL : 0	 EMPTY : 0 @ 1250000
[SCO] : DATA MATCH
[GEN] : WR : 0	 RD:1	 DATAWR : 3	 DATARD : 0	 FULL : 0	 EMPTY : 0 @ 1250000
[DRV] : WR : 0	 RD:1	 DATAWR : 3	 DATARD : 0	 FULL : 0	 EMPTY : 0 @ 1250000
[MON] : WR : 0	 RD:1	 DATAWR : 3	 DATARD : 4	 FULL : 0	 EMPTY : 0 @ 1290000
[SCO] : WR : 0	 RD:1	 DATAWR : 3	 DATARD : 4	 FULL : 0	 EMPTY : 0 @ 1290000
[SCO] : DATA MATCH
[GEN] : WR : 1	 RD:0	 DATAWR : 2	 DATARD : 0	 FULL : 0	 EMPTY : 0 @ 1290000
[DRV] : WR : 1	 RD:0	 DATAWR : 2	 DATARD : 0	 FULL : 0	 EMPTY : 0 @ 1290000
[MON] : WR : 1	 RD:0	 DATAWR : 2	 DATARD : 4	 FULL : 0	 EMPTY : 0 @ 1330000
[SCO] : WR : 1	 RD:0	 DATAWR : 2	 DATARD : 4	 FULL : 0	 EMPTY : 0 @ 1330000
[SCO] : DATA STORED IN QUEUE :2
[GEN] : WR : 1	 RD:0	 DATAWR : 2	 DATARD : 0	 FULL : 0	 EMPTY : 0 @ 1330000
[DRV] : WR : 1	 RD:0	 DATAWR : 2	 DATARD : 0	 FULL : 0	 EMPTY : 0 @ 1330000
[MON] : WR : 1	 RD:0	 DATAWR : 2	 DATARD : 4	 FULL : 0	 EMPTY : 0 @ 1370000
[SCO] : WR : 1	 RD:0	 DATAWR : 2	 DATARD : 4	 FULL : 0	 EMPTY : 0 @ 1370000
[SCO] : DATA STORED IN QUEUE :2
[GEN] : WR : 1	 RD:0	 DATAWR : 4	 DATARD : 0	 FULL : 0	 EMPTY : 0 @ 1370000
[DRV] : WR : 1	 RD:0	 DATAWR : 4	 DATARD : 0	 FULL : 0	 EMPTY : 0 @ 1370000
[MON] : WR : 1	 RD:0	 DATAWR : 4	 DATARD : 4	 FULL : 0	 EMPTY : 0 @ 1410000
[SCO] : WR : 1	 RD:0	 DATAWR : 4	 DATARD : 4	 FULL : 0	 EMPTY : 0 @ 1410000
[SCO] : DATA STORED IN QUEUE :4
[GEN] : WR : 0	 RD:1	 DATAWR : 4	 DATARD : 0	 FULL : 0	 EMPTY : 0 @ 1410000
[DRV] : WR : 0	 RD:1	 DATAWR : 4	 DATARD : 0	 FULL : 0	 EMPTY : 0 @ 1410000
[MON] : WR : 0	 RD:1	 DATAWR : 4	 DATARD : 2	 FULL : 0	 EMPTY : 0 @ 1450000
[SCO] : WR : 0	 RD:1	 DATAWR : 4	 DATARD : 2	 FULL : 0	 EMPTY : 0 @ 1450000
[SCO] : DATA MATCH
[GEN] : WR : 1	 RD:0	 DATAWR : 4	 DATARD : 0	 FULL : 0	 EMPTY : 0 @ 1450000
[DRV] : WR : 1	 RD:0	 DATAWR : 4	 DATARD : 0	 FULL : 0	 EMPTY : 0 @ 1450000
[MON] : WR : 1	 RD:0	 DATAWR : 4	 DATARD : 2	 FULL : 0	 EMPTY : 0 @ 1490000
[SCO] : WR : 1	 RD:0	 DATAWR : 4	 DATARD : 2	 FULL : 0	 EMPTY : 0 @ 1490000
[SCO] : DATA STORED IN QUEUE :4
[GEN] : WR : 0	 RD:1	 DATAWR : 2	 DATARD : 0	 FULL : 0	 EMPTY : 0 @ 1490000
[DRV] : WR : 0	 RD:1	 DATAWR : 2	 DATARD : 0	 FULL : 0	 EMPTY : 0 @ 1490000
[MON] : WR : 0	 RD:1	 DATAWR : 2	 DATARD : 2	 FULL : 0	 EMPTY : 0 @ 1530000
[SCO] : WR : 0	 RD:1	 DATAWR : 2	 DATARD : 2	 FULL : 0	 EMPTY : 0 @ 1530000
[SCO] : DATA MATCH
[GEN] : WR : 1	 RD:0	 DATAWR : 3	 DATARD : 0	 FULL : 0	 EMPTY : 0 @ 1530000
[DRV] : WR : 1	 RD:0	 DATAWR : 3	 DATARD : 0	 FULL : 0	 EMPTY : 0 @ 1530000
[MON] : WR : 1	 RD:0	 DATAWR : 3	 DATARD : 2	 FULL : 0	 EMPTY : 0 @ 1570000
[SCO] : WR : 1	 RD:0	 DATAWR : 3	 DATARD : 2	 FULL : 0	 EMPTY : 0 @ 1570000
[SCO] : DATA STORED IN QUEUE :3
[GEN] : WR : 0	 RD:1	 DATAWR : 3	 DATARD : 0	 FULL : 0	 EMPTY : 0 @ 1570000
[DRV] : WR : 0	 RD:1	 DATAWR : 3	 DATARD : 0	 FULL : 0	 EMPTY : 0 @ 1570000
[MON] : WR : 0	 RD:1	 DATAWR : 3	 DATARD : 2	 FULL : 0	 EMPTY : 0 @ 1610000
[SCO] : WR : 0	 RD:1	 DATAWR : 3	 DATARD : 2	 FULL : 0	 EMPTY : 0 @ 1610000
[SCO] : DATA MATCH
[GEN] : WR : 0	 RD:1	 DATAWR : 3	 DATARD : 0	 FULL : 0	 EMPTY : 0 @ 1610000
[DRV] : WR : 0	 RD:1	 DATAWR : 3	 DATARD : 0	 FULL : 0	 EMPTY : 0 @ 1610000
[MON] : WR : 0	 RD:1	 DATAWR : 3	 DATARD : 4	 FULL : 0	 EMPTY : 0 @ 1650000
[SCO] : WR : 0	 RD:1	 DATAWR : 3	 DATARD : 4	 FULL : 0	 EMPTY : 0 @ 1650000
[SCO] : DATA MATCH
[GEN] : WR : 0	 RD:1	 DATAWR : 3	 DATARD : 0	 FULL : 0	 EMPTY : 0 @ 1650000
[DRV] : WR : 0	 RD:1	 DATAWR : 3	 DATARD : 0	 FULL : 0	 EMPTY : 0 @ 1650000
[MON] : WR : 0	 RD:1	 DATAWR : 3	 DATARD : 4	 FULL : 0	 EMPTY : 0 @ 1690000
[SCO] : WR : 0	 RD:1	 DATAWR : 3	 DATARD : 4	 FULL : 0	 EMPTY : 0 @ 1690000
[SCO] : DATA MATCH
[GEN] : WR : 0	 RD:1	 DATAWR : 3	 DATARD : 0	 FULL : 0	 EMPTY : 0 @ 1690000
[DRV] : WR : 0	 RD:1	 DATAWR : 3	 DATARD : 0	 FULL : 0	 EMPTY : 0 @ 1690000
[MON] : WR : 0	 RD:1	 DATAWR : 3	 DATARD : 3	 FULL : 0	 EMPTY : 0 @ 1730000
[SCO] : WR : 0	 RD:1	 DATAWR : 3	 DATARD : 3	 FULL : 0	 EMPTY : 0 @ 1730000
[SCO] : DATA MATCH
[GEN] : WR : 1	 RD:0	 DATAWR : 4	 DATARD : 0	 FULL : 0	 EMPTY : 0 @ 1730000
[DRV] : WR : 1	 RD:0	 DATAWR : 4	 DATARD : 0	 FULL : 0	 EMPTY : 0 @ 1730000
[MON] : WR : 1	 RD:0	 DATAWR : 4	 DATARD : 3	 FULL : 0	 EMPTY : 0 @ 1770000
[SCO] : WR : 1	 RD:0	 DATAWR : 4	 DATARD : 3	 FULL : 0	 EMPTY : 0 @ 1770000
[SCO] : DATA STORED IN QUEUE :4
[GEN] : WR : 1	 RD:0	 DATAWR : 3	 DATARD : 0	 FULL : 0	 EMPTY : 0 @ 1770000
[DRV] : WR : 1	 RD:0	 DATAWR : 3	 DATARD : 0	 FULL : 0	 EMPTY : 0 @ 1770000
[MON] : WR : 1	 RD:0	 DATAWR : 3	 DATARD : 3	 FULL : 0	 EMPTY : 0 @ 1810000
[SCO] : WR : 1	 RD:0	 DATAWR : 3	 DATARD : 3	 FULL : 0	 EMPTY : 0 @ 1810000
[SCO] : DATA STORED IN QUEUE :3
[GEN] : WR : 0	 RD:1	 DATAWR : 2	 DATARD : 0	 FULL : 0	 EMPTY : 0 @ 1810000
[DRV] : WR : 0	 RD:1	 DATAWR : 2	 DATARD : 0	 FULL : 0	 EMPTY : 0 @ 1810000
[MON] : WR : 0	 RD:1	 DATAWR : 2	 DATARD : 4	 FULL : 0	 EMPTY : 0 @ 1850000
[SCO] : WR : 0	 RD:1	 DATAWR : 2	 DATARD : 4	 FULL : 0	 EMPTY : 0 @ 1850000
[SCO] : DATA MATCH
[GEN] : WR : 1	 RD:0	 DATAWR : 3	 DATARD : 0	 FULL : 0	 EMPTY : 0 @ 1850000
[DRV] : WR : 1	 RD:0	 DATAWR : 3	 DATARD : 0	 FULL : 0	 EMPTY : 0 @ 1850000
[MON] : WR : 1	 RD:0	 DATAWR : 3	 DATARD : 4	 FULL : 0	 EMPTY : 0 @ 1890000
[SCO] : WR : 1	 RD:0	 DATAWR : 3	 DATARD : 4	 FULL : 0	 EMPTY : 0 @ 1890000
[SCO] : DATA STORED IN QUEUE :3
[GEN] : WR : 0	 RD:1	 DATAWR : 4	 DATARD : 0	 FULL : 0	 EMPTY : 0 @ 1890000
[DRV] : WR : 0	 RD:1	 DATAWR : 4	 DATARD : 0	 FULL : 0	 EMPTY : 0 @ 1890000
[MON] : WR : 0	 RD:1	 DATAWR : 4	 DATARD : 3	 FULL : 0	 EMPTY : 0 @ 1930000
[SCO] : WR : 0	 RD:1	 DATAWR : 4	 DATARD : 3	 FULL : 0	 EMPTY : 0 @ 1930000
[SCO] : DATA MATCH
[GEN] : WR : 1	 RD:0	 DATAWR : 3	 DATARD : 0	 FULL : 0	 EMPTY : 0 @ 1930000
[DRV] : WR : 1	 RD:0	 DATAWR : 3	 DATARD : 0	 FULL : 0	 EMPTY : 0 @ 1930000
[MON] : WR : 1	 RD:0	 DATAWR : 3	 DATARD : 3	 FULL : 0	 EMPTY : 0 @ 1970000
[SCO] : WR : 1	 RD:0	 DATAWR : 3	 DATARD : 3	 FULL : 0	 EMPTY : 0 @ 1970000
[SCO] : DATA STORED IN QUEUE :3
[GEN] : WR : 0	 RD:1	 DATAWR : 3	 DATARD : 0	 FULL : 0	 EMPTY : 0 @ 1970000
[DRV] : WR : 0	 RD:1	 DATAWR : 3	 DATARD : 0	 FULL : 0	 EMPTY : 0 @ 1970000
[MON] : WR : 0	 RD:1	 DATAWR : 3	 DATARD : 3	 FULL : 0	 EMPTY : 0 @ 2010000
[SCO] : WR : 0	 RD:1	 DATAWR : 3	 DATARD : 3	 FULL : 0	 EMPTY : 0 @ 2010000
[SCO] : DATA MATCH
[GEN] : WR : 1	 RD:0	 DATAWR : 4	 DATARD : 0	 FULL : 0	 EMPTY : 0 @ 2010000
[DRV] : WR : 1	 RD:0	 DATAWR : 4	 DATARD : 0	 FULL : 0	 EMPTY : 0 @ 2010000
[MON] : WR : 1	 RD:0	 DATAWR : 4	 DATARD : 3	 FULL : 0	 EMPTY : 0 @ 2050000
[SCO] : WR : 1	 RD:0	 DATAWR : 4	 DATARD : 3	 FULL : 0	 EMPTY : 0 @ 2050000
[SCO] : DATA STORED IN QUEUE :4
[GEN] : WR : 1	 RD:0	 DATAWR : 2	 DATARD : 0	 FULL : 0	 EMPTY : 0 @ 2050000
[DRV] : WR : 1	 RD:0	 DATAWR : 2	 DATARD : 0	 FULL : 0	 EMPTY : 0 @ 2050000
[MON] : WR : 1	 RD:0	 DATAWR : 2	 DATARD : 3	 FULL : 0	 EMPTY : 0 @ 2090000
[SCO] : WR : 1	 RD:0	 DATAWR : 2	 DATARD : 3	 FULL : 0	 EMPTY : 0 @ 2090000
[SCO] : DATA STORED IN QUEUE :2
[GEN] : WR : 0	 RD:1	 DATAWR : 4	 DATARD : 0	 FULL : 0	 EMPTY : 0 @ 2090000
[DRV] : WR : 0	 RD:1	 DATAWR : 4	 DATARD : 0	 FULL : 0	 EMPTY : 0 @ 2090000
[MON] : WR : 0	 RD:1	 DATAWR : 4	 DATARD : 3	 FULL : 0	 EMPTY : 0 @ 2130000
[SCO] : WR : 0	 RD:1	 DATAWR : 4	 DATARD : 3	 FULL : 0	 EMPTY : 0 @ 2130000
[SCO] : DATA MATCH
[GEN] : WR : 1	 RD:0	 DATAWR : 3	 DATARD : 0	 FULL : 0	 EMPTY : 0 @ 2130000
[DRV] : WR : 1	 RD:0	 DATAWR : 3	 DATARD : 0	 FULL : 0	 EMPTY : 0 @ 2130000
[MON] : WR : 1	 RD:0	 DATAWR : 3	 DATARD : 3	 FULL : 0	 EMPTY : 0 @ 2170000
[SCO] : WR : 1	 RD:0	 DATAWR : 3	 DATARD : 3	 FULL : 0	 EMPTY : 0 @ 2170000
[SCO] : DATA STORED IN QUEUE :3
[GEN] : WR : 0	 RD:1	 DATAWR : 3	 DATARD : 0	 FULL : 0	 EMPTY : 0 @ 2170000
[DRV] : WR : 0	 RD:1	 DATAWR : 3	 DATARD : 0	 FULL : 0	 EMPTY : 0 @ 2170000
[MON] : WR : 0	 RD:1	 DATAWR : 3	 DATARD : 4	 FULL : 0	 EMPTY : 0 @ 2210000
[SCO] : WR : 0	 RD:1	 DATAWR : 3	 DATARD : 4	 FULL : 0	 EMPTY : 0 @ 2210000
[SCO] : DATA MATCH
[GEN] : WR : 1	 RD:0	 DATAWR : 3	 DATARD : 0	 FULL : 0	 EMPTY : 0 @ 2210000
[DRV] : WR : 1	 RD:0	 DATAWR : 3	 DATARD : 0	 FULL : 0	 EMPTY : 0 @ 2210000
[MON] : WR : 1	 RD:0	 DATAWR : 3	 DATARD : 4	 FULL : 0	 EMPTY : 0 @ 2250000
[SCO] : WR : 1	 RD:0	 DATAWR : 3	 DATARD : 4	 FULL : 0	 EMPTY : 0 @ 2250000
[SCO] : DATA STORED IN QUEUE :3
[GEN] : WR : 1	 RD:0	 DATAWR : 4	 DATARD : 0	 FULL : 0	 EMPTY : 0 @ 2250000
[DRV] : WR : 1	 RD:0	 DATAWR : 4	 DATARD : 0	 FULL : 0	 EMPTY : 0 @ 2250000
[MON] : WR : 1	 RD:0	 DATAWR : 4	 DATARD : 4	 FULL : 0	 EMPTY : 0 @ 2290000
[SCO] : WR : 1	 RD:0	 DATAWR : 4	 DATARD : 4	 FULL : 0	 EMPTY : 0 @ 2290000
[SCO] : DATA STORED IN QUEUE :4
